…
Re-organize census data
-----------------------

For this task, you will begin by downloading data on the racial demographics of US metropolitan and micropolitan areas. To find this data, go to [data.census.gov](https://data.census.gov/cedsci/) and search for race. Select the second table on the list, which says

    RACE
    Survey/Program: American Community Survey
    Universe: Total population
    TableID: B02001

Click the “Customize Table” button and choose `Geographies`. Scroll down until you see Metropolitan Statistical Area/Micropolitan Statistical Area. Select this and then click the box that says “All Metropolitan Statistical Areas/Micropolitan Statistical Areas within United States”. Click Close and the choose Download. Leave the default options checked (1 year 2019) and download the resulting file to the data directory of your assignment repo. Unzip the file. (Note: As long as you don’t change the data itself, you *are* allowed to change the file names.)

Read the data into your program and then use a combination of string functions to generate a table that looks like the one below. You should remove any rows for which data is not available. (Note: the reason some rows do not have data is that demographic estimates are not generated annually for some of the smaller regions). Generating this table will require you to change the data type of several variables and to extract parts of the string variables. There is no single correct set up steps to get from beginning to end. It is likely that you will find it helpful to create some intermediate variables that you will ultimately drop.

    ## # A tibble: 492 x 7
    ##    cbsa_code area_type cities   states percent_white percent_black percent_asian
    ##    <chr>     <chr>     <chr>    <chr>          <dbl>         <dbl>         <dbl>
    ##  1 10140     Micro     Aberdeen WA             0.870       0.0252        0.0128 
    ##  2 10180     Metro     Abilene  TX             0.815       0.0873        0.0174 
    ##  3 10300     Micro     Adrian   MI             0.941       0.0192        0.00367
    ##  4 10380     Metro     Aguadil~ PR             0.762       0.0225        0      
    ##  5 10420     Metro     Akron    OH             0.807       0.126         0.0305 
    ##  6 10460     Micro     Alamogo~ NM             0.781       0.0406        0.00667
    ##  7 10500     Metro     Albany   GA             0.409       0.548         0.0151 
    ##  8 10540     Metro     Albany-~ OR             0.888       0.00577       0.00936
    ##  9 10580     Metro     Albany-~ NY             0.820       0.0769        0.0449 
    ## 10 10700     Micro     Albertv~ AL             0.933       0.0395        0.00613
    ## # ... with 482 more rows
…
